%YAML 1.1
%TAG !u! tag:unity3d.com,2011:
--- !u!114 &11400000
MonoBehaviour:
  m_ObjectHideFlags: 0
  m_CorrespondingSourceObject: {fileID: 0}
  m_PrefabInstance: {fileID: 0}
  m_PrefabAsset: {fileID: 0}
  m_GameObject: {fileID: 0}
  m_Enabled: 1
  m_EditorHideFlags: 0
  m_Script: {fileID: 11500000, guid: 3951c479edebd5d42a9a630d3d1f0987, type: 3}
  m_Name: HeroModel
  m_EditorClassIdentifier: 
  health:
    hp: 10
    healPoints: 0
  armor:
    shield: 10
  energyShield:
    shield: 0
    time: 0
    shieldPoints: 0
  inventar:
    energy: 10
    healBoxes: 2
  see:
    distance: 0
  move:
    speed: {x: 2, y: 0}
  attack:
    power: 3
    distance: 5
    interval: 1
  skills:
    impulse:
      coolDown: 5
      resource: 1
    shield:
      coolDown: 5
      resource: 2
    heal:
      coolDown: 5
      resource: 1
